Experiment_3/dump.vcd
$date
	Wed Apr 21 23:22:45 2021
$end
$version
	Icarus Verilog
$end
$timescale
	1ps
$end
$scope module sum_fact_N_tb $end
$scope module sum_fact_N $end
$var wire 3 ! N_in [2:0] $end
$var wire 3 " N_out [2:0] $end
$var wire 1 # clk $end
$var wire 3 $ i_out [2:0] $end
$var wire 1 % input_valid $end
$var wire 1 & output_ack $end
$var wire 1 ' reset $end
$var wire 13 ( sum_out [12:0] $end
$var wire 13 ) sum_mux_out [12:0] $end
$var wire 13 * sum_fact [12:0] $end
$var wire 1 + output_valid $end
$var wire 3 , i_mux_out [2:0] $end
$var wire 13 - fact_mux_out [12:0] $end
$var wire 3 . N_mux_out [2:0] $end
$var reg 3 / N [2:0] $end
$var reg 13 0 fact [12:0] $end
$var reg 3 1 i [2:0] $end
$var reg 2 2 next_state [1:0] $end
$var reg 2 3 state [1:0] $end
$var reg 13 4 sum [12:0] $end
$upscope $end
$upscope $end
$enddefinitions $end
#0
$dumpvars
b0 4
b0 3
b0 2
b0 1
b1 0
b0 /
bx .
b1 -
b0 ,
0+
b0 *
b0 )
b0 (
1'
0&
x%
b0 $
0#
b0 "
bx !
$end
#10000
1#
#20000
b1 2
b111 .
0#
b111 !
1%
0'
#30000
b1 )
b111 ,
b1 3
b111 "
b111 /
1#
#35000
b110 .
0%
#40000
0#
#50000
b111 -
b110 .
b110 ,
b1 )
b111 $
b111 1
b1 (
b1 4
b110 "
b110 /
1#
#60000
0#
#70000
b101 ,
b101010 -
b110 $
b110 1
b111 0
1#
#80000
0#
#90000
b100 ,
b11010010 -
b101 $
b101 1
b101010 0
1#
#100000
0#
#110000
b11 ,
b1101001000 -
b100 $
b100 1
b11010010 0
1#
#120000
0#
#130000
b10 ,
b100111011000 -
b11 $
b11 1
b1101001000 0
1#
#140000
0#
#150000
b1 ,
b1001110110000 -
b10 $
b10 1
b100111011000 0
1#
#160000
0#
#170000
b0 ,
b1 $
b1 1
b1001110110000 0
1#
#180000
0#
#190000
b101 .
b1001110110001 )
b110 ,
b1 -
b0 $
b0 1
1#
#200000
0#
#210000
b110 -
b101 .
b101 ,
b1001110110001 )
b110 $
b110 1
b1 0
b1001110110001 (
b1001110110001 4
b101 "
b101 /
1#
#220000
0#
#230000
b100 ,
b11110 -
b101 $
b101 1
b110 0
1#
#240000
0#
#250000
b11 ,
b1111000 -
b100 $
b100 1
b11110 0
1#
#260000
0#
#270000
b10 ,
b101101000 -
b11 $
b11 1
b1111000 0
1#
#280000
0#
#290000
b1 ,
b1011010000 -
b10 $
b10 1
b101101000 0
1#
#300000
0#
#310000
b0 ,
b1 $
b1 1
b1011010000 0
1#
#320000
0#
#330000
b100 .
b1011010000001 )
b101 ,
b1 -
b0 $
b0 1
1#
#340000
0#
#350000
b101 -
b100 .
b100 ,
b1011010000001 )
b101 $
b101 1
b1 0
b1011010000001 (
b1011010000001 4
b100 "
b100 /
1#
#360000
0#
#370000
b11 ,
b10100 -
b100 $
b100 1
b101 0
1#
#380000
0#
#390000
b10 ,
b111100 -
b11 $
b11 1
b10100 0
1#
#400000
0#
#410000
b1 ,
b1111000 -
b10 $
b10 1
b111100 0
1#
#420000
0#
#430000
b0 ,
b1 $
b1 1
b1111000 0
1#
#440000
0#
#450000
b11 .
b1011011111001 )
b100 ,
b1 -
b0 $
b0 1
1#
#460000
0#
#470000
b100 -
b11 .
b11 ,
b1011011111001 )
b100 $
b100 1
b1 0
b1011011111001 (
b1011011111001 4
b11 "
b11 /
1#
#480000
0#
#490000
b10 ,
b1100 -
b11 $
b11 1
b100 0
1#
#500000
0#
#510000
b1 ,
b11000 -
b10 $
b10 1
b1100 0
1#
#520000
0#
#530000
b0 ,
b1 $
b1 1
b11000 0
1#
#540000
0#
#550000
b10 .
b1011100010001 )
b11 ,
b1 -
b0 $
b0 1
1#
#560000
0#
#570000
b11 -
b10 .
b10 ,
b1011100010001 )
b11 $
b11 1
b1 0
b1011100010001 (
b1011100010001 4
b10 "
b10 /
1#
#580000
0#
#590000
b1 ,
b110 -
b10 $
b10 1
b11 0
1#
#600000
0#
#610000
b0 ,
b1 $
b1 1
b110 0
1#
#620000
0#
#630000
b1 .
b1011100010111 )
b10 ,
b1 -
b0 $
b0 1
1#
#640000
0#
#650000
b10 -
b1 .
b1 ,
b1011100010111 )
b10 $
b10 1
b1 0
b1011100010111 (
b1011100010111 4
b1 "
b1 /
1#
#660000
0#
#670000
b0 ,
b1 $
b1 1
b10 0
1#
#680000
0#
#690000
b0 .
b1011100011001 )
b1 ,
b1 -
b0 $
b0 1
1#
#700000
0#
#710000
b0 .
b0 ,
b1011100011001 )
b11 2
b1 $
b1 1
b1 0
b1011100011001 (
b1011100011001 4
b0 "
b0 /
1#
#720000
0#
#730000
b0 -
b1011100011001 *
1+
b11 3
b0 $
b0 1
1#
#740000
0#
#750000
b0 0
1#
#760000
0#
#770000
1#
#780000
0#
#790000
1#
#800000
0#
#810000
1#
#820000
0#
#830000
1#
#840000
0#
#850000
1#
#860000
0#
#870000
1#
#880000
0#
#890000
1#
#900000
0#
#910000
1#
#920000
0#
#930000
1#
#940000
0#
#950000
1#
#960000
0#
#970000
1#
#980000
0#
#990000
1#
#1000000
0#
#1010000
1#
#1020000
0#
#1030000
1#
#1035000
b0 2
1&
#1040000
0#
#1050000
b1 -
b0 *
0+
b0 3
1#
#1055000
0&
#1060000
0#
#1070000
b1 0
1#
